604565466
69194807
116248865
-226538292
357497625
387375456
6442893186645075
393456886
58979135
4347512
-302261692
650631745
377839372
12185906540438520
505793331
2558445960922074
730079621784270
-46980506
60123715
-75784051
302041465
26998790762797128
-772693207
-704278040
174969758791541000
148413664
478135564
87240320
262507919108875020
460237363
852802536
881861579
32363483971809738
211109871409768
10909066347406260
248414528
183743854251227556
9197099
8300857658690184
41425788
-371410842
233361745
436705869
17182878828814440
3662900289954444
-278622172
633278895184000
553337774
-292827263
23266436451191252
193717453
139825205
20242218878496554
122284258
73623388143286294
143375477
277502791
12456779821561608
429613698
5964172049783890
573666449
346830645
537382150
616047470
6769682220773685
-96691098
-551448812
512350432
-78035841
7993522345942961
383175383684321447
-371114868
238328236
1349599796261064
352159842
778187859
40068284682683780
273710163
284276159548296810
96402354
-382170902
42428483245957968
603453334
11262116805157653
731128853
-128688422
-118596883
61435933954433424
-14666489
8370897953557800
59268179
-140177712
555170901
34348370014070024
6359571779252838
361256279188078722
13639531689865556
387222865927956639
11872738086927588
267356803
97103441
138737504
287150662862993583
160101080
264243234
57518128280849060
-130354303
231241155921506528
-212817569
114494226153442584
11622069866685663
-148516307
228738740401358625
35458012
-73077068
636752500
1137951280
10462437897796808
-482297194
88914802723508846
-218698785
112162814835999948
17322978101004576
-11179802
838091177
-560243862
-250638086
179012881
64031972
-14156218
-28784658
799609715
2279642791296705
1756469732089728
-249942456
362434416
384019726
328970973
1212611477
18014755519511410
398971928
-284074219
325701703
33450256
407786321
157936620
-46255110
428303843
44159403677952789
111282173
-186825159
22791258301793730
68537806025224512
37082954184620
498065128
855522435
154986339
911283329
684020282
-281016195
501343175
4665710011268592
811524334
382817679
430261890
-97675035
786852398
8083874309047760
-871913612
8951266895387901
386462902150667820
267540117942450
4228978839719205
10766365874255992
1034167002
113987153105757493
439616918
494904137
244777492
316962521
-64126999
-849538841
401449331
154438868
69198769451110866
-379741263
-266729517
-75875929
447885416
276056156
394181386
60308693
75381396
515451934
1281111699
1313348313
-227118807
469583344
28551999427305835
31369134534849514
-658551293
380322028
2139955148166894
1090887643
272901382
916525117
141142978721264208
-705839897
648118492
55586372089647184
40630150460362320
326418659
993400792
12085977664751820
406390866
406719534
356254354
-222762
25000908181479360
422482328878952400
221349728
-211317623
-238001442
483247678
21697560853633322
718496104649346
52348365837428254
-46330929
3010890952633704
-3857772
150128635
957822602413056
-79284782
367211725
570698336
288578834217054540
493838680
337416249912795754
2474704055129770
-118939339
71428869
669911035
563796253
16007783981537544
85077712
177116363
-19013507
1307721354565630
1033382848239424
230876283
